50.851930,48.388697
48.823184,51.249188
47.151645,47.692415
46.418095,48.930394
53.138366,46.512445
47.054102,48.291341
52.575198,51.350377
45.788667,50.123879
52.027687,49.339254
54.839042,49.773986
51.378037,50.675079
51.762008,54.068997
47.631466,52.051624
51.645704,49.354619
53.087940,48.999926
51.763997,47.500194
51.337850,45.252994
47.077219,46.820330
49.283906,54.611192
50.304819,53.095729
49.910901,52.507867
49.720071,45.240848
52.933108,46.739113
54.275026,50.359082
51.555316,50.192013
51.053571,47.371801
47.851882,46.587989
47.060131,49.625136
49.656251,52.604775
48.447777,51.794410
48.642875,50.798399
48.688226,53.019693
51.974526,45.863878
54.192240,48.972598
52.460369,51.419528
48.012720,49.777816
49.000348,48.850853
45.582924,52.196879
52.946434,50.708279
50.584533,54.250094
51.330263,47.735377
48.487532,49.956050
51.329934,52.198847
46.025444,49.639023
53.053609,51.999757
49.917852,49.336620
50.575602,54.136340
49.469405,52.296962
52.466976,52.467099
54.534904,48.133909
46.616087,46.567442
48.999239,50.205859
49.863909,52.710752
49.614138,54.824175
49.908069,54.907733
54.261829,48.559151
50.124595,54.062374
46.311459,46.699034
50.668346,52.886678
46.405488,47.031760
52.785901,52.638227
50.682014,52.611043
51.234699,51.578764
47.279020,48.493513
50.481145,46.611338
46.755302,46.366423
50.470912,54.616073
52.338709,46.675842
50.884712,49.355153
52.055472,46.312959
51.898221,53.407853
45.790976,48.927252
50.327435,53.194856
47.592628,49.293609
47.687135,47.681156
47.180870,48.874254
49.586670,53.166610
51.206863,53.745019
52.537501,47.780663
49.602178,53.799106
51.581561,51.287907
45.764355,51.507653
49.116553,51.902440
54.307793,51.082921
50.657602,52.324044
50.202969,51.307079
48.073287,47.737857
50.156688,53.447682
47.999258,53.525307
49.841807,51.253188
52.336573,50.784504
45.165177,51.127833
46.017680,49.150125
46.142653,49.574906
45.441295,51.842592
48.441137,50.191088
51.622354,46.908377
49.085510,50.163246
47.294504,48.729135
50.574606,47.408337
51.916406,49.037356
50.840201,51.265621
51.291710,49.774848
53.367232,53.062036
53.639744,53.184731
53.717906,46.842142
46.331779,48.212205
52.530074,52.959152
54.011535,51.861178
50.817518,50.021339
48.640828,46.391879
48.317858,48.234099
50.505060,48.551749
49.248529,50.019458
47.026131,48.181297
53.062798,46.439693
51.921862,50.728985
52.050884,49.207021
52.401790,46.881215
52.585757,48.810561
49.096587,46.342788
53.241505,49.979042
47.753316,49.981034
51.230376,48.923682
50.327905,51.103481
46.202919,52.454224
48.137438,45.914686
48.134512,46.736286
46.645001,52.536919
48.000910,51.297492
46.944545,46.963210
50.675709,46.637151
50.596230,50.830254
54.085373,52.868516
51.146642,51.612180
45.958386,52.593013
50.765195,50.626462
48.944052,52.681706
51.439034,45.843049
54.124534,51.046918
45.546523,50.419690
53.731029,47.403159
54.888980,49.086895
53.446617,47.288163
52.148152,53.983493
50.565674,47.276348
53.572502,53.038540
48.743535,52.593101
52.253848,50.429145
52.632387,52.523300
49.095262,54.069880
52.480984,47.904713
54.515878,48.355427
49.661188,45.591290
52.384219,51.561937
51.472497,48.255492
50.056604,51.338346
47.990773,50.918763
51.658092,47.551929
46.332929,47.532850
49.796455,49.023442
46.989462,51.886571
47.605321,52.630496
50.738927,49.145433
47.291435,47.151718
48.927807,49.657954
51.230503,51.061690
53.820870,47.365398
50.245958,53.808140
53.407959,47.562944
50.397866,46.928433
46.171225,49.782845
50.269469,48.964185
51.054155,47.186381
51.499725,45.886234
49.935054,48.450684
50.638154,45.455653
53.165792,47.469550
50.727003,48.739665
47.204976,54.037486
48.025676,47.535271
48.464928,50.047025
50.341086,52.639898
48.764592,46.502458
46.818217,53.771443
46.635981,50.931146
49.776121,47.260453
46.441536,52.892214
49.433469,48.319768
50.336066,48.258332
47.794169,46.600148
48.690858,47.247836
54.376747,49.992507
54.058262,47.201645
48.045371,48.543341
47.934744,49.247588
54.211992,50.947773
49.219687,45.285843
49.156585,54.726092
51.424493,51.461695
46.705404,47.731355
50.890164,50.979945
49.933444,51.384907
46.136174,50.682013
52.587564,49.187752
48.552108,45.284303
53.277052,47.406661
53.749538,48.483962
49.953781,53.200332
47.987281,52.232029
53.715300,53.038971
45.981518,51.370332
51.167921,49.244150
46.428890,50.357999
46.897230,51.737335
49.383030,50.588737
53.032580,48.570548
54.757601,50.998509
49.435502,52.478191
50.958550,50.355212
50.054453,45.190851
49.799461,49.534673
49.243382,53.523912
46.383752,51.725409
48.948305,54.157589
46.596809,52.569060
48.184352,54.396032
51.530772,47.688743
54.699739,48.509987
48.861966,53.057864
53.521346,53.256310
48.797712,53.152189
48.846121,46.752032
51.404023,47.415363
50.007787,50.884247
51.542323,51.827702
45.698224,50.046527
51.971802,50.075391
47.101197,49.810883
51.517545,45.386359
48.534740,53.368869
50.578611,54.718321
50.824930,54.606415
50.021297,47.941933
50.067398,52.762586
50.777318,54.390760
45.496410,48.164301
47.400241,45.857090
50.105690,46.327278
52.557667,46.716454
53.439515,47.926875
46.979756,48.761792
49.433187,53.568144
49.798750,47.599068
47.539574,47.627298
45.241195,48.765631
53.960349,51.585338
48.169280,51.085103
47.333612,46.022218
47.228920,46.466419
51.107638,46.072517
50.796360,54.427121
46.621428,46.335819
52.290569,47.596198
49.291730,46.101709
51.421901,47.889714
52.431341,53.552939
54.251202,49.956083
51.886624,48.481718
52.232012,53.422906
48.787206,46.566681
46.201403,46.983931
48.928949,48.842028
47.972177,48.383508
51.610742,51.745415
45.193077,50.041851
48.971325,51.055797
54.776602,50.348889
51.370748,48.163521
54.778419,50.892390
48.406034,50.213234
50.249680,46.364544
48.894721,53.571408
54.661834,51.440085
53.516321,48.811585
49.412197,50.796819
52.144156,46.826671
45.851663,48.903443
50.174488,52.617064
52.736756,46.658086
52.443182,52.556691
50.313166,53.389346
51.908900,52.874562
52.757020,47.238666
50.262075,54.698972
48.524741,45.325138
49.591251,50.154917
52.231237,50.405776
49.876454,53.570593
50.955983,47.203978
47.251880,52.354556
51.106398,45.239583
51.673480,46.176023
50.421762,48.554224
50.845368,48.101927
49.089385,45.286465
49.618954,45.756659
52.175257,49.544551
50.603565,54.122102
50.161730,48.195130
45.548384,51.682357
52.485180,48.418970
47.625624,53.855499
49.379296,47.829943
47.853218,49.042546
48.076200,46.698136
53.268153,47.842709
52.418297,54.319431
46.683690,52.773904
51.007163,47.384570
52.471120,52.106368
51.719936,46.958961
49.249445,45.428953
48.480544,52.508779
52.369220,49.486401
47.938466,51.791627
51.869049,53.099828
48.816447,48.025260
50.546167,49.424339
48.248671,45.408512
50.856726,48.995135
51.226118,47.368284
48.746203,47.427397
52.257761,46.189977
50.475331,48.881117
48.678544,50.292336
53.291274,46.439787
53.505762,51.346549
51.455990,50.820720
53.835297,49.841344
53.475186,47.451961
45.103201,49.491069
46.391948,49.464421
48.520062,46.684762
50.796076,49.648809
47.540255,49.062406
51.862318,49.986253
47.959539,45.970524
46.594841,49.489423
52.181402,52.831494
48.927511,54.679835
50.231458,50.108697
46.876310,50.139104
47.927500,47.498083
50.287545,52.762004
50.999444,47.655143
49.987126,53.621982
54.652180,49.197651
53.593035,48.146910
50.424591,46.095504
47.139444,52.631601
49.315754,49.870125
47.196304,48.277854
47.272442,47.930943
48.447129,50.897208
49.372798,48.615934
48.004040,53.901337
49.772259,52.351599
53.326414,47.036004
48.238743,48.558850
48.589703,47.135738
50.342154,50.582945
47.559201,47.488336
46.456670,47.250623
51.224924,47.300064
52.180602,49.372331
50.762486,45.095150
54.184727,52.710879
51.739546,46.541301
49.645417,50.524059
47.860493,51.305383
49.564172,45.036988
46.649528,48.612124
45.927389,51.634734
46.824135,53.234656
50.467200,52.233571
49.621599,50.217637
47.826675,52.931516
49.983496,52.615590
50.224360,50.823247
46.309082,46.732975
51.114792,46.304411
48.228309,53.184863
50.405634,47.494186
48.690321,48.232485
53.367829,53.109764
45.798296,51.965525
50.090089,54.131777
52.771300,47.234671
53.112375,49.684349
54.851026,51.199451
49.177787,51.063189
49.010744,53.574938
53.979921,50.536247
52.710621,47.410468
47.729167,54.117498
52.790087,52.990791
46.221057,47.305159
47.807499,50.635603
52.583663,53.631501
48.417517,53.212908
49.348322,47.253826
51.842225,52.275289
50.775456,53.081369
48.574943,49.072859
47.547482,50.523822
54.257836,51.444904
54.509304,47.865876
51.783298,51.894669
53.705022,50.297149
50.945637,53.316453
49.628869,52.409175
51.005397,47.705882
52.763190,50.939859
46.208663,49.007280
52.162131,48.940646
45.441833,50.887135
50.086005,45.481683
50.647312,49.366292
49.269190,47.273975
53.693863,52.762080
52.272716,47.537896
49.416994,51.411945
50.554035,51.667674
48.603034,51.194046
48.325301,53.334151
47.071990,48.932003
50.176750,50.632166
54.812849,49.556055
48.609049,52.288040
46.691058,46.614380
47.882468,50.644270
48.247109,49.159887
50.215206,46.973184
48.308164,45.313744
48.099952,45.900414
48.249798,54.353334
46.488217,47.462253
50.110996,45.507190
49.346001,48.241802
49.962756,54.043739
53.116127,52.754633
47.108958,50.253371
48.409417,47.071650
53.216014,51.553179
54.285101,49.688999
53.004211,51.767314
53.252588,46.242560
48.711473,53.734508
45.872085,52.135128
47.693215,49.871781
49.473770,45.648747
48.495888,50.396881
50.376914,54.795349
45.423254,48.624472
51.499816,47.408541
45.350226,51.241904
52.675315,54.011002
52.917125,48.117850
46.703081,48.683564
54.665292,49.570130
51.826195,52.860118
50.010282,52.801968
52.674107,53.709166
49.948548,45.243916
47.967182,54.424331
49.734745,51.862344
50.413338,46.966047
48.358646,53.765192
51.582235,52.624011
51.756031,53.607138
47.197792,53.282008
50.715701,48.781474
50.232919,54.667061
49.301724,54.079620
46.176463,47.812359
52.318324,54.063223
50.594505,51.847018
51.286093,45.357217
48.740046,53.957865
49.829702,47.799206
51.233560,52.439221
48.209671,49.943669
53.238750,53.664936
47.344692,52.242848
48.467907,50.113404
47.869525,53.107597
49.387444,54.767613
49.270848,45.140780
51.088460,53.740447
